{
    "version": "1.0.0",
    "summary": "a multi-player homage to LetterPress",
    "repository": "https://github.com/blake-education/lettersmash.git",
    "license": "BSD3",
    "source-directories": [
        "."
    ],
    "exposed-modules": [],
    "dependencies": {
        "elm-lang/core": "4.0.0 <= v < 5.0.0",
        "elm-lang/html": "1.0.0 <= v < 2.0.0"
    },
    "elm-version": "0.17.0 <= v < 0.18.0"
}
